waveform.vcd
$date
	Fri Nov 20 09:53:21 2020
$end
$version
	ModelSim Version 2020.1
$end
$timescale
	1ps
$end
$scope module MIPS_tb $end
$scope module UUT $end
$scope module DP $end
$var wire 1 ! func [5] $end
$var wire 1 " func [4] $end
$var wire 1 # func [3] $end
$var wire 1 $ func [2] $end
$var wire 1 % func [1] $end
$var wire 1 & func [0] $end
$upscope $end
$upscope $end
$upscope $end
$enddefinitions $end
#0
x!
x"
x#
x$
x%
x&
#4500
0!
0"
0#
0$
0%
0&
#8500
1!
#12500
0!
1&
#16500
1#
1$
1%
#21500
0#
0$
0%
#25500
1!
0&
#29500
1#
1%
#33500
0!
0#
1$
1&
#36500
1!
0$
0%
0&
#40500
0!
1&
#44500
1%
0&
#48500
0%
1&
#53500
1%
0&
#58500
1!
0%
#62500
0!
1$
1%
#65500
1!
1#
0$
#69500
0!
0#
1$
1&
#72500
1!
0$
0%
0&
#76500
0!
1&
#80500
1%
0&
#84500
0%
1&
#89500
1%
0&
#94500
1!
0%
#98500
0!
1$
1%
#101500
1!
1#
0$
#105500
0!
0#
1$
1&
#108500
1!
0$
0%
0&
#112500
0!
1&
#116500
1%
0&
#120500
0%
1&
#125500
1%
0&
#130500
1!
0%
#134500
0!
1$
1%
#137500
1!
1#
0$
#141500
0!
0#
1$
1&
#144500
1!
0$
0%
0&
#148500
0!
1&
#152500
1%
0&
#156500
0%
1&
#161500
1%
0&
#166500
1!
0%
#170500
0!
1$
1%
#173500
1!
1#
0$
#177500
0!
0#
1$
1&
#180500
1!
0$
0%
0&
#184500
0!
1&
#188500
1%
0&
#192500
0%
1&
#197500
1%
0&
#202500
1!
0%
#206500
0!
1$
1%
#209500
1!
1#
0$
#213500
0!
0#
1$
1&
#216500
1!
0$
0&
#220500
0!
0%
#224500
1!
1$
#228500
1&
#232500
0!
1%
0&
#236500
1!
1"
1#
1&
